aiocache==0.11.1
amqp==5.0.6
asgiref==3.3.4
asyncpg==0.23.0
billiard==3.6.4.0
celery==5.1.0
click==7.1.2
click-didyoumean==0.0.3
click-plugins==1.1.1
click-repl==0.2.0
databases==0.4.3
fastapi==0.65.1
gunicorn==20.1.0
h11==0.12.0
httptools==0.2.0
kombu==5.1.0
-e git+https://github.com/gawel/panoramisk@219e52506346bc3f22fd1194b2ef4bb9a575d072#egg=panoramisk
prompt-toolkit==3.0.18
pydantic==1.8.2
pytz==2021.1
PyYAML==5.4.1
six==1.16.0
SQLAlchemy==1.3.24
starlette==0.14.2
typing-extensions==3.10.0.0
uvicorn==0.14.0
uvloop==0.15.2
vine==5.0.0
wcwidth==0.2.5
